162.159.39.68:443#knight优选
162.159.45.120:443#knight优选
104.20.26.53:443#knight优选
162.159.58.191:443#knight优选
104.26.14.130:443#knight优选
104.20.29.9:443#knight优选
172.67.68.185:443#knight优选
104.20.28.49:443#knight优选
104.20.27.26:443#knight优选
104.26.3.231:443#knight优选
104.26.10.191:443#knight优选
104.26.0.63:443#knight优选
162.159.138.209:443#knight优选
104.20.24.105:443#knight优选
162.159.137.175:443#knight优选
162.159.142.22:443#knight优选
104.20.20.123:443#knight优选
162.159.129.203:443#knight优选
162.159.140.68:443#knight优选
162.159.130.167:443#knight优选
104.26.12.251:443#knight优选
162.159.128.238:443#knight优选
162.159.153.239:443#knight优选
104.26.5.151:443#knight优选
104.26.2.177:443#knight优选
104.26.4.174:443#knight优选
104.26.9.205:443#knight优选
104.20.30.54:443#knight优选
162.159.141.213:443#knight优选
104.26.8.150:443#knight优选
172.67.65.149:443#knight优选
104.20.18.175:443#knight优选
162.159.143.189:443#knight优选
104.20.16.41:443#knight优选
104.20.31.190:443#knight优选
104.26.1.78:443#knight优选
104.20.21.88:443#knight优选
104.26.15.97:443#knight优选
time.cloudflare.com:443#knight优选
shopify.com:443#knight优选
time.is:443#knight优选
icook.hk:443#knight优选
icook.tw:443#knight优选
ip.sb:443#knight优选
japan.com:443#knight优选
malaysia.com:443#knight优选
russia.com:443#knight优选
singapore.com:443#knight优选
skk.moe:443#knight优选
www.visa.com:443#knight优选
www.visa.com.sg:443#knight优选
www.visa.com.hk:443#knight优选
www.visa.com.tw:443#knight优选
www.visa.co.jp:443#knight优选
www.visakorea.com:443#knight优选
www.gco.gov.qa:443#knight优选
www.gov.se:443#knight优选
www.gov.ua:443#knight优选
www.digitalocean.com:443#knight优选
www.csgo.com:443#knight优选
www.shopify.com:443#knight优选
www.whoer.net:443#knight优选
www.whatismyip.com:443#knight优选
www.ipget.net:443#knight优选
www.hugedomains.com:443#knight优选
www.udacity.com:443#knight优选
www.4chan.org:443#knight优选
www.okcupid.com:443#knight优选
www.glassdoor.com:443#knight优选
www.udemy.com:443#knight优选
www.baipiao.eu.org:443#knight优选
cdn.anycast.eu.org:443#knight优选
cdn-all.xn--b6gac.eu.org:443#knight优选
cdn-b100.xn--b6gac.eu.org:443#knight优选
xn--b6gac.eu.org:443#knight优选
edgetunnel.anycast.eu.org:443#knight优选
alejandracaiccedo.com:443#knight优选
nc.gocada.co:443#knight优选
log.bpminecraft.com:443#knight优选
www.boba88slot.com:443#knight优选
gur.gov.ua:443#knight优选
www.zsu.gov.ua:443#knight优选
www.iakeys.com:443#knight优选
edtunnel-dgp.pages.dev:443#knight优选
www.d-555.com:443#knight优选
fbi.gov:443#knight优选
